<?xml version="1.0" encoding="utf-8"?>
<!-- Generator: Adobe Illustrator 15.1.0, SVG Export Plug-In . SVG Version: 6.00 Build 0)  -->
<!DOCTYPE svg PUBLIC "-//W3C//DTD SVG 1.1//EN" "http://www.w3.org/Graphics/SVG/1.1/DTD/svg11.dtd">
<svg version="1.1" id="Layer_1" xmlns="http://www.w3.org/2000/svg" xmlns:xlink="http://www.w3.org/1999/xlink" x="0px" y="0px"
	 width="20.789px" height="18px" viewBox="0 0 20.789 18" enable-background="new 0 0 20.789 18" xml:space="preserve">
<polygon fill="#E10404" points="5.197,0 0,9.002 5.194,18 15.595,18 20.789,9.002 15.592,0 "/>
<g>
	<defs>
		<rect id="SVGID_1_" width="20.789" height="18"/>
	</defs>
	<clipPath id="SVGID_2_">
		<use xlink:href="#SVGID_1_"  overflow="visible"/>
	</clipPath>
	<path clip-path="url(#SVGID_2_)" fill="#FFFFFF" d="M9.566,9.667L9.325,6.059C9.28,5.356,9.257,4.851,9.257,4.545
		c0-0.417,0.109-0.743,0.328-0.976c0.218-0.234,0.506-0.35,0.862-0.35c0.432,0,0.721,0.149,0.867,0.448
		c0.145,0.299,0.218,0.729,0.218,1.292c0,0.331-0.018,0.668-0.053,1.009l-0.324,3.714c-0.035,0.442-0.11,0.781-0.226,1.018
		c-0.115,0.235-0.307,0.354-0.572,0.354c-0.271,0-0.46-0.114-0.565-0.343C9.686,10.481,9.611,10.134,9.566,9.667 M10.402,14.624
		c-0.306,0-0.574-0.1-0.802-0.298c-0.229-0.198-0.343-0.476-0.343-0.832c0-0.312,0.109-0.576,0.328-0.795
		c0.218-0.219,0.486-0.327,0.802-0.327c0.316,0,0.587,0.108,0.811,0.327c0.223,0.219,0.335,0.483,0.335,0.795
		c0,0.352-0.113,0.628-0.339,0.829C10.967,14.523,10.703,14.624,10.402,14.624"/>
</g>
</svg>
