<svg id="Layer_1" data-name="Layer 1" 
    xmlns="http://www.w3.org/2000/svg" viewBox="0 0 16 16">
    <defs>
        <style>.cls-1{fill:#1e1e1e;}</style>
    </defs>
    <title>Artboard 1</title>
    <path class="cls-1" d="M13.64,5a1,1,0,0,0-1-.8H11.5V4A3.52,3.52,0,0,0,8,.5,3.5,3.5,0,0,0,4.5,4v.2H3.33a1,1,0,0,0-1,.76S.69,14.47.69,14.5a1,1,0,0,0,1,1H14.31a1,1,0,0,0,1-1S13.64,5,13.64,5ZM5.5,4a2.5,2.5,0,1,1,5,0v.2h-5Zm7.66,10H2.89a.5.5,0,0,1-.5-.5s0-.14,0-.14L3.69,6.1a.5.5,0,0,1,.49-.4H4.5V7h1V5.7h5V7h1V5.7h.32a.5.5,0,0,1,.49.4l1.29,7.3s0,.07,0,.1A.5.5,0,0,1,13.16,14Z"/>
</svg>