<?xml version="1.0" encoding="utf-8"?>
<!-- Generator: Adobe Illustrator 19.2.1, SVG Export Plug-In . SVG Version: 6.00 Build 0)  -->
<svg version="1.1" id="Layer_1" xmlns="http://www.w3.org/2000/svg" xmlns:xlink="http://www.w3.org/1999/xlink" x="0px" y="0px"
	 viewBox="0 0 500 500" style="enable-background:new 0 0 500 500;" xml:space="preserve">
<path class="googleplus" d="M250,0C111.9,0,0,111.9,0,250s111.9,250,250,250s250-111.9,250-250S388.1,0,250,0z M184.4,364.8
	C121,364.8,69.6,313.5,69.6,250S121,135.2,184.4,135.2c31,0,56.9,11.3,76.9,30l-31.2,30c-8.5-8.2-23.4-17.7-45.7-17.7
	c-39.2,0-71.2,32.5-71.2,72.5s32,72.5,71.2,72.5c45.4,0,62.5-32.5,65.1-49.5H184v-39h108.8c1,5,1.8,11.3,1.8,18.8
	C294.6,318.4,250.7,364.8,184.4,364.8z M398,266v33h-33v-33h-33v-32h33v-33h33v33h32v32H398z"/>
</svg>
