<?xml version="1.0" encoding="utf-8"?>
<!-- Generator: Adobe Illustrator 19.2.1, SVG Export Plug-In . SVG Version: 6.00 Build 0)  -->
<svg version="1.1" id="Layer_1" xmlns="http://www.w3.org/2000/svg" xmlns:xlink="http://www.w3.org/1999/xlink" x="0px" y="0px"
	 viewBox="0 0 500 500" style="enable-background:new 0 0 500 500;" xml:space="preserve">
<path class="twitter" d="M250,0C111.9,0,0,111.9,0,250s111.9,250,250,250s250-111.9,250-250S388.1,0,250,0z M347.9,199.8c0.1,2.2,0.2,4.3,0.2,6.5
	c0,66.8-50.8,143.8-143.7,143.8c-28.5,0-55.1-8.4-77.4-22.7c4,0.5,8,0.7,12,0.7c23.7,0,45.4-8.1,62.7-21.6
	c-22.1-0.4-40.8-15-47.2-35.1c3.1,0.6,6.2,0.9,9.5,0.9c4.6,0,9.1-0.6,13.4-1.8c-23.1-4.6-40.4-25.1-40.4-49.5v-0.6
	c7,3.8,14.5,6.1,22.8,6.3c-13.5-9.1-22.5-24.5-22.5-42.1c0-9.3,2.5-17.9,6.8-25.4c24.9,30.6,62.1,50.7,104.1,52.8
	c-0.9-3.7-1.3-7.5-1.3-11.5c0-27.9,22.6-50.5,50.5-50.5c14.5,0,27.6,6.1,36.8,16c11.5-2.3,22.3-6.5,32.1-12.3
	c-3.8,11.8-11.8,21.7-22.2,27.9c10.2-1.2,19.9-3.9,29-8C366.3,183.8,357.7,192.6,347.9,199.8z"/>
</svg>
