<?xml version="1.0" encoding="utf-8"?>
<!-- Generator: Adobe Illustrator 22.1.0, SVG Export Plug-In . SVG Version: 6.00 Build 0)  -->
<svg version="1.1" id="Layer_1" xmlns="http://www.w3.org/2000/svg" xmlns:xlink="http://www.w3.org/1999/xlink" x="0px" y="0px"
	 viewBox="0 0 595.1 125" style="enable-background:new 0 0 595.1 125;" xml:space="preserve">
<style type="text/css">
	.st0{fill:#373737;}
	.st1{fill:#2778B3;}
	.st2{fill:#074578;}
</style>
<path class="st0" d="M299.7,42.1c11.6,11.6,11.6,30.3,0,41.9c-5.6,5.5-13.1,8.6-20.9,8.5c-5.2,0-10.2-2-14-5.6l-0.6-0.5v33.2
	l-15,4.7V34.7h15v4.5l0.6-0.6c4.5-4.3,9.5-5,14-5C286.6,33.5,294.2,36.6,299.7,42.1 M293.4,63c0-8.1-6.5-14.6-14.6-14.6
	c-8.1,0-14.6,6.5-14.6,14.6c0,8.1,6.7,15,14.6,15C286.7,78.1,293.4,71.1,293.4,63"/>
<path class="st0" d="M322.4,84c-11.6-11.6-11.6-30.3,0-41.9c5.6-5.5,13.1-8.6,20.9-8.5c5.2,0,10.2,2,14,5.6l0.6,0.5v-5h15v56.7h-15
	V87l-0.6,0.6c-4.5,4.3-9.5,5-14,5C335.5,92.5,328,89.5,322.4,84 M328.8,63c0,8.1,6.5,14.6,14.6,14.6c8.1,0,14.6-6.5,14.6-14.6
	c0-8.1-6.7-15-14.6-15C335.5,48,328.8,55,328.8,63"/>
<path class="st0" d="M322.4,84c-11.6-11.6-11.6-30.3,0-41.9c5.6-5.5,13.1-8.6,20.9-8.5c5.2,0,10.2,2,14,5.6l0.6,0.5v-5h15v56.7h-15
	V87l-0.6,0.6c-4.5,4.3-9.5,5-14,5C335.5,92.5,328,89.5,322.4,84 M328.8,63c0,8.1,6.5,14.6,14.6,14.6c8.1,0,14.6-6.5,14.6-14.6
	c0-8.1-6.7-15-14.6-15C335.5,48,328.8,55,328.8,63"/>
<polygon class="st0" points="387.9,124.4 401.4,91.5 378.8,34.7 395.4,34.7 409.5,70 423.9,34.7 440.3,34.7 404.2,124.4 "/>
<polygon class="st0" points="387.9,124.4 401.4,91.5 378.8,34.7 395.4,34.7 409.5,70 423.9,34.7 440.3,34.7 404.2,124.4 "/>
<path class="st0" d="M30,91.9C14.1,91.9,1.1,79,1.1,63.1S14.1,34.2,30,34.2c7.8,0,14.4,4.2,18.6,7.6l1.2,1v-7.4H59v55.3h-9.2v-7.4
	l-1.2,1C44.4,87.8,37.8,92,30,91.9 M30,43.2C19,43.1,10,51.9,9.9,63C9.8,74,18.7,83,29.7,83c11,0.1,20-8.8,20.1-19.8
	c0-0.1,0-0.1,0-0.2C49.8,52.1,40.9,43.2,30,43.2"/>
<path class="st0" d="M75.6,90.7V44.1h-8.4v-8.7h8.4V19.1c0-9.8,7.9-17.8,17.7-17.9c0.1,0,0.3,0,0.4,0h11.5L103,9.9h-9
	c-5.1,0.2-9.1,4.3-9.1,9.4v16.1h17.5v8.7H84.8v46.6H75.6z"/>
<path class="st0" d="M137,90.7c-10,0-18.1-8.1-18.1-18.1V44.1h-8.4v-8.7h8.4V1.2h9.2v34.2h17.5v8.7h-17.5v28.2
	c0,5.1,4.4,9.7,9.2,9.7h9l2.3,8.7H137z"/>
<path class="st0" d="M176.5,91.6c-7.1,0-13.9-3-18.6-8.4c-4.4-4.8-7.1-10.9-7.5-17.4c-0.1-0.8-0.1-1.7-0.1-2.6
	c0-2.2,0.3-4.4,0.7-6.5c1.1-5,3.5-9.6,6.9-13.4c9.4-10.3,25.3-11.1,35.7-1.8c0.6,0.6,1.2,1.2,1.8,1.8c3.5,3.7,5.9,8.4,6.9,13.4
	c0.5,2.7,0.7,5.4,0.7,8.2h-43.9v1c1.3,9.8,8.7,17.2,17.2,17.3c5.2-0.2,10.1-2.3,14-5.8l7.7,4.6c-2,2.1-4.3,4-6.8,5.5
	C186.7,90.1,181.7,91.5,176.5,91.6 M176.5,43.5c-7.1,0-13.7,5.1-16.4,12.7l-0.1,0.2l-0.5,1.1h34.1l-0.7-1.3
	C190.4,48.5,183.8,43.4,176.5,43.5"/>
<path class="st0" d="M211.9,90.7V35.4h9.2v7l1.3-1.4c3.3-3.6,12.8-6.5,19.2-6.8l-2.3,9.2c-10.1,0.3-18.2,8.2-18.2,17.8v29.5
	L211.9,90.7z"/>
<path class="st1" d="M519.7,50.3l16.1-9.3c-1.8-3.1-1.3-2.4-3-5.3c-1.6-2.9-1.1-4.3,2.5-4.4c10.3-0.1,20.7-0.1,31,0
	c3.1,0,3.8,1.3,2.3,4c-5.1,9-10.3,17.9-15.5,26.9c-1.7,2.9-3.1,2.8-4.9,0c-1.7-2.8-1.3-2.2-3.2-5.4l-16,9.3c0.3,0.7,0.6,1.3,1.1,1.9
	c4,6.9,5.8,10.2,9.9,17.1c4.9,8.1,15.1,8.6,20.9,1.2c0.6-0.8,1.2-1.7,1.8-2.6c9.7-16.9,19.5-33.8,29.2-50.7c1-1.7,1.8-3.6,2.3-5.5
	c1.5-6.5-2.6-13.1-9.2-14.6c-0.9-0.2-1.8-0.3-2.7-0.3c-20.9-0.1-41.8-0.1-62.7,0.1c-6.8-0.1-12.4,5.3-12.5,12.1c0,2,0.5,4.1,1.4,5.9
	c1.4,2.7,3,5.3,4.5,8C515.8,43.6,516.6,44.9,519.7,50.3"/>
<path class="st2" d="M473.3,102.5c0-6.3,0-18.5,0-18.5s-2.6,0-6,0c-3.5,0-4.3-1.2-2.5-4.3c5.1-8.9,10.2-17.7,15.4-26.6
	c1.5-2.6,2.9-2.9,4.6,0.1c5.1,8.9,10.3,17.8,15.3,26.7c1.6,2.9,0.9,4.1-2.4,4.2h-6.2v18.6h21.7c9.4-0.1,14.9-8.6,11.3-17.3
	c-0.4-1-0.9-1.9-1.4-2.8c-9.6-16.8-19.3-33.5-28.9-50.3c-0.9-1.7-2.2-3.3-3.6-4.7c-4.8-4.6-12.5-4.4-17,0.4
	c-0.6,0.7-1.2,1.4-1.7,2.2C461.5,48.1,451.1,66,440.8,84c-3.5,5.8-1.6,13.2,4.1,16.7c1.8,1.1,3.7,1.7,5.8,1.7
	C453.7,102.6,466.6,102.5,473.3,102.5"/>
</svg>
