<?xml version="1.0" encoding="utf-8"?>
<!-- Generator: Adobe Illustrator 22.1.0, SVG Export Plug-In . SVG Version: 6.00 Build 0)  -->
<svg version="1.1" id="Layer_2" xmlns="http://www.w3.org/2000/svg" xmlns:xlink="http://www.w3.org/1999/xlink" x="0px" y="0px"
	 viewBox="0 0 250 250" style="enable-background:new 0 0 250 250;" xml:space="preserve">
<style type="text/css">
	.st0{display:none;}
	.st1{display:inline;fill:none;stroke:#666666;stroke-width:4;stroke-miterlimit:10;}
	.st2{fill:#666666;}
	.st3{fill:#666666;stroke:#666666;stroke-width:1.5;stroke-miterlimit:10;}
</style>
<g class="st0">
	<path class="st1" d="M27.5,66H226v147.5c0,0,0,24.1-18.8,26.8s-158.3,0-158.3,0s-21.5-5.4-21.5-24.1S27.5,66,27.5,66z"/>
	<path class="st1" d="M79.8,66c0,0-9.4-59,46.9-59s45.6,59,45.6,59"/>
</g>
<g>
	<g>
		<path class="st2" d="M110.7,9c56.2,0,101.8,46.7,101.8,104.2s-45.7,104.2-101.8,104.2S8.8,170.7,8.8,113.2S54.5,9,110.7,9
			 M110.7,6C52.8,6,5.8,54,5.8,113.2s46.9,107.2,104.8,107.2s104.8-48,104.8-107.2S168.6,6,110.7,6L110.7,6z"/>
	</g>
	<path class="st3" d="M193.5,178.3c0,0,50.5,45.7,50.6,45.7c2.7,2.5-0.4,9-1.7,10.7c-1.3,1.8-3.2,3-5.4,3.6
		c-1.3,0.4-2.8,0.7-4.3,0.5c-1.6-0.3-2.7-1.5-4-2.6c-3.7-3.4-7.5-6.8-11.2-10.2c-6.5-5.9-12.9-11.8-19.4-17.7
		c-4.9-4.5-9.8-9-14.8-13.5c-0.7-0.7-1.5-1.3-2.2-2"/>
</g>
</svg>
